%YAML 1.1
%TAG !u! tag:unity3d.com,2011:
--- !u!1 &3640233267506873923
GameObject:
  m_ObjectHideFlags: 0
  m_CorrespondingSourceObject: {fileID: 0}
  m_PrefabInstance: {fileID: 0}
  m_PrefabAsset: {fileID: 0}
  serializedVersion: 6
  m_Component:
  - component: {fileID: 1747326653340198136}
  m_Layer: 0
  m_Name: ShortSteps_Inverted 1
  m_TagString: Untagged
  m_Icon: {fileID: 0}
  m_NavMeshLayer: 0
  m_StaticEditorFlags: 4294967295
  m_IsActive: 1
--- !u!4 &1747326653340198136
Transform:
  m_ObjectHideFlags: 0
  m_CorrespondingSourceObject: {fileID: 0}
  m_PrefabInstance: {fileID: 0}
  m_PrefabAsset: {fileID: 0}
  m_GameObject: {fileID: 3640233267506873923}
  m_LocalRotation: {x: 0, y: 0, z: 0, w: 1}
  m_LocalPosition: {x: 0, y: 0, z: 0}
  m_LocalScale: {x: 1, y: 1, z: 1}
  m_Children:
  - {fileID: 3650646722017119652}
  - {fileID: 6134616416918937043}
  - {fileID: 8046220814143975793}
  - {fileID: 187833166895475662}
  - {fileID: 1922725830080858279}
  - {fileID: 3002416385850020954}
  m_Father: {fileID: 0}
  m_RootOrder: 0
  m_LocalEulerAnglesHint: {x: 0, y: 0, z: 0}
--- !u!1001 &465925311787252913
PrefabInstance:
  m_ObjectHideFlags: 0
  serializedVersion: 2
  m_Modification:
    m_TransformParent: {fileID: 1747326653340198136}
    m_Modifications:
    - target: {fileID: 2078877896269015094, guid: 22ee8966e4c728a418415db5731c87ae,
        type: 3}
      propertyPath: m_Name
      value: Wall_1m
      objectReference: {fileID: 0}
    - target: {fileID: 2078877896268657686, guid: 22ee8966e4c728a418415db5731c87ae,
        type: 3}
      propertyPath: m_LocalPosition.x
      value: 3
      objectReference: {fileID: 0}
    - target: {fileID: 2078877896268657686, guid: 22ee8966e4c728a418415db5731c87ae,
        type: 3}
      propertyPath: m_LocalPosition.y
      value: 1
      objectReference: {fileID: 0}
    - target: {fileID: 2078877896268657686, guid: 22ee8966e4c728a418415db5731c87ae,
        type: 3}
      propertyPath: m_LocalPosition.z
      value: 3
      objectReference: {fileID: 0}
    - target: {fileID: 2078877896268657686, guid: 22ee8966e4c728a418415db5731c87ae,
        type: 3}
      propertyPath: m_LocalRotation.x
      value: -0
      objectReference: {fileID: 0}
    - target: {fileID: 2078877896268657686, guid: 22ee8966e4c728a418415db5731c87ae,
        type: 3}
      propertyPath: m_LocalRotation.y
      value: -0.70710737
      objectReference: {fileID: 0}
    - target: {fileID: 2078877896268657686, guid: 22ee8966e4c728a418415db5731c87ae,
        type: 3}
      propertyPath: m_LocalRotation.z
      value: -0
      objectReference: {fileID: 0}
    - target: {fileID: 2078877896268657686, guid: 22ee8966e4c728a418415db5731c87ae,
        type: 3}
      propertyPath: m_LocalRotation.w
      value: 0.7071063
      objectReference: {fileID: 0}
    - target: {fileID: 2078877896268657686, guid: 22ee8966e4c728a418415db5731c87ae,
        type: 3}
      propertyPath: m_RootOrder
      value: 4
      objectReference: {fileID: 0}
    - target: {fileID: 2078877896268657686, guid: 22ee8966e4c728a418415db5731c87ae,
        type: 3}
      propertyPath: m_LocalEulerAnglesHint.x
      value: 0
      objectReference: {fileID: 0}
    - target: {fileID: 2078877896268657686, guid: 22ee8966e4c728a418415db5731c87ae,
        type: 3}
      propertyPath: m_LocalEulerAnglesHint.y
      value: -90.00001
      objectReference: {fileID: 0}
    - target: {fileID: 2078877896268657686, guid: 22ee8966e4c728a418415db5731c87ae,
        type: 3}
      propertyPath: m_LocalEulerAnglesHint.z
      value: 0
      objectReference: {fileID: 0}
    m_RemovedComponents: []
  m_SourcePrefab: {fileID: 100100000, guid: 22ee8966e4c728a418415db5731c87ae, type: 3}
--- !u!4 &1922725830080858279 stripped
Transform:
  m_CorrespondingSourceObject: {fileID: 2078877896268657686, guid: 22ee8966e4c728a418415db5731c87ae,
    type: 3}
  m_PrefabInstance: {fileID: 465925311787252913}
  m_PrefabAsset: {fileID: 0}
--- !u!1001 &2180579135084453848
PrefabInstance:
  m_ObjectHideFlags: 0
  serializedVersion: 2
  m_Modification:
    m_TransformParent: {fileID: 1747326653340198136}
    m_Modifications:
    - target: {fileID: 2078877896269015094, guid: 22ee8966e4c728a418415db5731c87ae,
        type: 3}
      propertyPath: m_Name
      value: Wall_1m
      objectReference: {fileID: 0}
    - target: {fileID: 2078877896268657686, guid: 22ee8966e4c728a418415db5731c87ae,
        type: 3}
      propertyPath: m_LocalPosition.x
      value: 3
      objectReference: {fileID: 0}
    - target: {fileID: 2078877896268657686, guid: 22ee8966e4c728a418415db5731c87ae,
        type: 3}
      propertyPath: m_LocalPosition.y
      value: 0
      objectReference: {fileID: 0}
    - target: {fileID: 2078877896268657686, guid: 22ee8966e4c728a418415db5731c87ae,
        type: 3}
      propertyPath: m_LocalPosition.z
      value: 0
      objectReference: {fileID: 0}
    - target: {fileID: 2078877896268657686, guid: 22ee8966e4c728a418415db5731c87ae,
        type: 3}
      propertyPath: m_LocalRotation.x
      value: -0
      objectReference: {fileID: 0}
    - target: {fileID: 2078877896268657686, guid: 22ee8966e4c728a418415db5731c87ae,
        type: 3}
      propertyPath: m_LocalRotation.y
      value: -0.70710737
      objectReference: {fileID: 0}
    - target: {fileID: 2078877896268657686, guid: 22ee8966e4c728a418415db5731c87ae,
        type: 3}
      propertyPath: m_LocalRotation.z
      value: -0
      objectReference: {fileID: 0}
    - target: {fileID: 2078877896268657686, guid: 22ee8966e4c728a418415db5731c87ae,
        type: 3}
      propertyPath: m_LocalRotation.w
      value: 0.7071063
      objectReference: {fileID: 0}
    - target: {fileID: 2078877896268657686, guid: 22ee8966e4c728a418415db5731c87ae,
        type: 3}
      propertyPath: m_RootOrder
      value: 3
      objectReference: {fileID: 0}
    - target: {fileID: 2078877896268657686, guid: 22ee8966e4c728a418415db5731c87ae,
        type: 3}
      propertyPath: m_LocalEulerAnglesHint.x
      value: 0
      objectReference: {fileID: 0}
    - target: {fileID: 2078877896268657686, guid: 22ee8966e4c728a418415db5731c87ae,
        type: 3}
      propertyPath: m_LocalEulerAnglesHint.y
      value: -90.00001
      objectReference: {fileID: 0}
    - target: {fileID: 2078877896268657686, guid: 22ee8966e4c728a418415db5731c87ae,
        type: 3}
      propertyPath: m_LocalEulerAnglesHint.z
      value: 0
      objectReference: {fileID: 0}
    m_RemovedComponents: []
  m_SourcePrefab: {fileID: 100100000, guid: 22ee8966e4c728a418415db5731c87ae, type: 3}
--- !u!4 &187833166895475662 stripped
Transform:
  m_CorrespondingSourceObject: {fileID: 2078877896268657686, guid: 22ee8966e4c728a418415db5731c87ae,
    type: 3}
  m_PrefabInstance: {fileID: 2180579135084453848}
  m_PrefabAsset: {fileID: 0}
--- !u!1001 &3851441506848481356
PrefabInstance:
  m_ObjectHideFlags: 0
  serializedVersion: 2
  m_Modification:
    m_TransformParent: {fileID: 1747326653340198136}
    m_Modifications:
    - target: {fileID: 2078877896269015094, guid: 22ee8966e4c728a418415db5731c87ae,
        type: 3}
      propertyPath: m_Name
      value: Wall_1m
      objectReference: {fileID: 0}
    - target: {fileID: 2078877896268657686, guid: 22ee8966e4c728a418415db5731c87ae,
        type: 3}
      propertyPath: m_LocalPosition.x
      value: 3
      objectReference: {fileID: 0}
    - target: {fileID: 2078877896268657686, guid: 22ee8966e4c728a418415db5731c87ae,
        type: 3}
      propertyPath: m_LocalPosition.y
      value: 2
      objectReference: {fileID: 0}
    - target: {fileID: 2078877896268657686, guid: 22ee8966e4c728a418415db5731c87ae,
        type: 3}
      propertyPath: m_LocalPosition.z
      value: 6
      objectReference: {fileID: 0}
    - target: {fileID: 2078877896268657686, guid: 22ee8966e4c728a418415db5731c87ae,
        type: 3}
      propertyPath: m_LocalRotation.x
      value: -0
      objectReference: {fileID: 0}
    - target: {fileID: 2078877896268657686, guid: 22ee8966e4c728a418415db5731c87ae,
        type: 3}
      propertyPath: m_LocalRotation.y
      value: -0.70710737
      objectReference: {fileID: 0}
    - target: {fileID: 2078877896268657686, guid: 22ee8966e4c728a418415db5731c87ae,
        type: 3}
      propertyPath: m_LocalRotation.z
      value: -0
      objectReference: {fileID: 0}
    - target: {fileID: 2078877896268657686, guid: 22ee8966e4c728a418415db5731c87ae,
        type: 3}
      propertyPath: m_LocalRotation.w
      value: 0.7071063
      objectReference: {fileID: 0}
    - target: {fileID: 2078877896268657686, guid: 22ee8966e4c728a418415db5731c87ae,
        type: 3}
      propertyPath: m_RootOrder
      value: 5
      objectReference: {fileID: 0}
    - target: {fileID: 2078877896268657686, guid: 22ee8966e4c728a418415db5731c87ae,
        type: 3}
      propertyPath: m_LocalEulerAnglesHint.x
      value: 0
      objectReference: {fileID: 0}
    - target: {fileID: 2078877896268657686, guid: 22ee8966e4c728a418415db5731c87ae,
        type: 3}
      propertyPath: m_LocalEulerAnglesHint.y
      value: -90.00001
      objectReference: {fileID: 0}
    - target: {fileID: 2078877896268657686, guid: 22ee8966e4c728a418415db5731c87ae,
        type: 3}
      propertyPath: m_LocalEulerAnglesHint.z
      value: 0
      objectReference: {fileID: 0}
    m_RemovedComponents: []
  m_SourcePrefab: {fileID: 100100000, guid: 22ee8966e4c728a418415db5731c87ae, type: 3}
--- !u!4 &3002416385850020954 stripped
Transform:
  m_CorrespondingSourceObject: {fileID: 2078877896268657686, guid: 22ee8966e4c728a418415db5731c87ae,
    type: 3}
  m_PrefabInstance: {fileID: 3851441506848481356}
  m_PrefabAsset: {fileID: 0}
--- !u!1001 &3890092391448193132
PrefabInstance:
  m_ObjectHideFlags: 0
  serializedVersion: 2
  m_Modification:
    m_TransformParent: {fileID: 1747326653340198136}
    m_Modifications:
    - target: {fileID: 528559090867763688, guid: 2a86e4ba493cd034cbc2c5713da1a643,
        type: 3}
      propertyPath: m_Name
      value: Basic_Floor
      objectReference: {fileID: 0}
    - target: {fileID: 528559090868053448, guid: 2a86e4ba493cd034cbc2c5713da1a643,
        type: 3}
      propertyPath: m_LocalPosition.x
      value: 0
      objectReference: {fileID: 0}
    - target: {fileID: 528559090868053448, guid: 2a86e4ba493cd034cbc2c5713da1a643,
        type: 3}
      propertyPath: m_LocalPosition.y
      value: 1
      objectReference: {fileID: 0}
    - target: {fileID: 528559090868053448, guid: 2a86e4ba493cd034cbc2c5713da1a643,
        type: 3}
      propertyPath: m_LocalPosition.z
      value: 0
      objectReference: {fileID: 0}
    - target: {fileID: 528559090868053448, guid: 2a86e4ba493cd034cbc2c5713da1a643,
        type: 3}
      propertyPath: m_LocalRotation.x
      value: 0
      objectReference: {fileID: 0}
    - target: {fileID: 528559090868053448, guid: 2a86e4ba493cd034cbc2c5713da1a643,
        type: 3}
      propertyPath: m_LocalRotation.y
      value: -0
      objectReference: {fileID: 0}
    - target: {fileID: 528559090868053448, guid: 2a86e4ba493cd034cbc2c5713da1a643,
        type: 3}
      propertyPath: m_LocalRotation.z
      value: -0
      objectReference: {fileID: 0}
    - target: {fileID: 528559090868053448, guid: 2a86e4ba493cd034cbc2c5713da1a643,
        type: 3}
      propertyPath: m_LocalRotation.w
      value: 1
      objectReference: {fileID: 0}
    - target: {fileID: 528559090868053448, guid: 2a86e4ba493cd034cbc2c5713da1a643,
        type: 3}
      propertyPath: m_RootOrder
      value: 0
      objectReference: {fileID: 0}
    - target: {fileID: 528559090868053448, guid: 2a86e4ba493cd034cbc2c5713da1a643,
        type: 3}
      propertyPath: m_LocalEulerAnglesHint.x
      value: 0
      objectReference: {fileID: 0}
    - target: {fileID: 528559090868053448, guid: 2a86e4ba493cd034cbc2c5713da1a643,
        type: 3}
      propertyPath: m_LocalEulerAnglesHint.y
      value: 0
      objectReference: {fileID: 0}
    - target: {fileID: 528559090868053448, guid: 2a86e4ba493cd034cbc2c5713da1a643,
        type: 3}
      propertyPath: m_LocalEulerAnglesHint.z
      value: 0
      objectReference: {fileID: 0}
    m_RemovedComponents: []
  m_SourcePrefab: {fileID: 100100000, guid: 2a86e4ba493cd034cbc2c5713da1a643, type: 3}
--- !u!4 &3650646722017119652 stripped
Transform:
  m_CorrespondingSourceObject: {fileID: 528559090868053448, guid: 2a86e4ba493cd034cbc2c5713da1a643,
    type: 3}
  m_PrefabInstance: {fileID: 3890092391448193132}
  m_PrefabAsset: {fileID: 0}
--- !u!1001 &5942315616324417563
PrefabInstance:
  m_ObjectHideFlags: 0
  serializedVersion: 2
  m_Modification:
    m_TransformParent: {fileID: 1747326653340198136}
    m_Modifications:
    - target: {fileID: 528559090867763688, guid: 2a86e4ba493cd034cbc2c5713da1a643,
        type: 3}
      propertyPath: m_Name
      value: Basic_Floor
      objectReference: {fileID: 0}
    - target: {fileID: 528559090868053448, guid: 2a86e4ba493cd034cbc2c5713da1a643,
        type: 3}
      propertyPath: m_LocalPosition.x
      value: 0
      objectReference: {fileID: 0}
    - target: {fileID: 528559090868053448, guid: 2a86e4ba493cd034cbc2c5713da1a643,
        type: 3}
      propertyPath: m_LocalPosition.y
      value: 2
      objectReference: {fileID: 0}
    - target: {fileID: 528559090868053448, guid: 2a86e4ba493cd034cbc2c5713da1a643,
        type: 3}
      propertyPath: m_LocalPosition.z
      value: 3
      objectReference: {fileID: 0}
    - target: {fileID: 528559090868053448, guid: 2a86e4ba493cd034cbc2c5713da1a643,
        type: 3}
      propertyPath: m_LocalRotation.x
      value: 0
      objectReference: {fileID: 0}
    - target: {fileID: 528559090868053448, guid: 2a86e4ba493cd034cbc2c5713da1a643,
        type: 3}
      propertyPath: m_LocalRotation.y
      value: -0
      objectReference: {fileID: 0}
    - target: {fileID: 528559090868053448, guid: 2a86e4ba493cd034cbc2c5713da1a643,
        type: 3}
      propertyPath: m_LocalRotation.z
      value: -0
      objectReference: {fileID: 0}
    - target: {fileID: 528559090868053448, guid: 2a86e4ba493cd034cbc2c5713da1a643,
        type: 3}
      propertyPath: m_LocalRotation.w
      value: 1
      objectReference: {fileID: 0}
    - target: {fileID: 528559090868053448, guid: 2a86e4ba493cd034cbc2c5713da1a643,
        type: 3}
      propertyPath: m_RootOrder
      value: 1
      objectReference: {fileID: 0}
    - target: {fileID: 528559090868053448, guid: 2a86e4ba493cd034cbc2c5713da1a643,
        type: 3}
      propertyPath: m_LocalEulerAnglesHint.x
      value: 0
      objectReference: {fileID: 0}
    - target: {fileID: 528559090868053448, guid: 2a86e4ba493cd034cbc2c5713da1a643,
        type: 3}
      propertyPath: m_LocalEulerAnglesHint.y
      value: 0
      objectReference: {fileID: 0}
    - target: {fileID: 528559090868053448, guid: 2a86e4ba493cd034cbc2c5713da1a643,
        type: 3}
      propertyPath: m_LocalEulerAnglesHint.z
      value: 0
      objectReference: {fileID: 0}
    m_RemovedComponents: []
  m_SourcePrefab: {fileID: 100100000, guid: 2a86e4ba493cd034cbc2c5713da1a643, type: 3}
--- !u!4 &6134616416918937043 stripped
Transform:
  m_CorrespondingSourceObject: {fileID: 528559090868053448, guid: 2a86e4ba493cd034cbc2c5713da1a643,
    type: 3}
  m_PrefabInstance: {fileID: 5942315616324417563}
  m_PrefabAsset: {fileID: 0}
--- !u!1001 &7564985806085526713
PrefabInstance:
  m_ObjectHideFlags: 0
  serializedVersion: 2
  m_Modification:
    m_TransformParent: {fileID: 1747326653340198136}
    m_Modifications:
    - target: {fileID: 528559090867763688, guid: 2a86e4ba493cd034cbc2c5713da1a643,
        type: 3}
      propertyPath: m_Name
      value: Basic_Floor
      objectReference: {fileID: 0}
    - target: {fileID: 528559090868053448, guid: 2a86e4ba493cd034cbc2c5713da1a643,
        type: 3}
      propertyPath: m_LocalPosition.x
      value: 0
      objectReference: {fileID: 0}
    - target: {fileID: 528559090868053448, guid: 2a86e4ba493cd034cbc2c5713da1a643,
        type: 3}
      propertyPath: m_LocalPosition.y
      value: 3
      objectReference: {fileID: 0}
    - target: {fileID: 528559090868053448, guid: 2a86e4ba493cd034cbc2c5713da1a643,
        type: 3}
      propertyPath: m_LocalPosition.z
      value: 6
      objectReference: {fileID: 0}
    - target: {fileID: 528559090868053448, guid: 2a86e4ba493cd034cbc2c5713da1a643,
        type: 3}
      propertyPath: m_LocalRotation.x
      value: 0
      objectReference: {fileID: 0}
    - target: {fileID: 528559090868053448, guid: 2a86e4ba493cd034cbc2c5713da1a643,
        type: 3}
      propertyPath: m_LocalRotation.y
      value: -0
      objectReference: {fileID: 0}
    - target: {fileID: 528559090868053448, guid: 2a86e4ba493cd034cbc2c5713da1a643,
        type: 3}
      propertyPath: m_LocalRotation.z
      value: -0
      objectReference: {fileID: 0}
    - target: {fileID: 528559090868053448, guid: 2a86e4ba493cd034cbc2c5713da1a643,
        type: 3}
      propertyPath: m_LocalRotation.w
      value: 1
      objectReference: {fileID: 0}
    - target: {fileID: 528559090868053448, guid: 2a86e4ba493cd034cbc2c5713da1a643,
        type: 3}
      propertyPath: m_RootOrder
      value: 2
      objectReference: {fileID: 0}
    - target: {fileID: 528559090868053448, guid: 2a86e4ba493cd034cbc2c5713da1a643,
        type: 3}
      propertyPath: m_LocalEulerAnglesHint.x
      value: 0
      objectReference: {fileID: 0}
    - target: {fileID: 528559090868053448, guid: 2a86e4ba493cd034cbc2c5713da1a643,
        type: 3}
      propertyPath: m_LocalEulerAnglesHint.y
      value: 0
      objectReference: {fileID: 0}
    - target: {fileID: 528559090868053448, guid: 2a86e4ba493cd034cbc2c5713da1a643,
        type: 3}
      propertyPath: m_LocalEulerAnglesHint.z
      value: 0
      objectReference: {fileID: 0}
    m_RemovedComponents: []
  m_SourcePrefab: {fileID: 100100000, guid: 2a86e4ba493cd034cbc2c5713da1a643, type: 3}
--- !u!4 &8046220814143975793 stripped
Transform:
  m_CorrespondingSourceObject: {fileID: 528559090868053448, guid: 2a86e4ba493cd034cbc2c5713da1a643,
    type: 3}
  m_PrefabInstance: {fileID: 7564985806085526713}
  m_PrefabAsset: {fileID: 0}
