%YAML 1.1
%TAG !u! tag:unity3d.com,2011:
--- !u!1 &9194622232533691677
GameObject:
  m_ObjectHideFlags: 0
  m_CorrespondingSourceObject: {fileID: 0}
  m_PrefabInstance: {fileID: 0}
  m_PrefabAsset: {fileID: 0}
  serializedVersion: 6
  m_Component:
  - component: {fileID: 7074722834440534117}
  m_Layer: 0
  m_Name: Wall_4m 1
  m_TagString: Untagged
  m_Icon: {fileID: 0}
  m_NavMeshLayer: 0
  m_StaticEditorFlags: 4294967295
  m_IsActive: 1
--- !u!4 &7074722834440534117
Transform:
  m_ObjectHideFlags: 0
  m_CorrespondingSourceObject: {fileID: 0}
  m_PrefabInstance: {fileID: 0}
  m_PrefabAsset: {fileID: 0}
  m_GameObject: {fileID: 9194622232533691677}
  m_LocalRotation: {x: -0, y: -0, z: -0, w: 1}
  m_LocalPosition: {x: 0, y: 0, z: 0}
  m_LocalScale: {x: 1, y: 1, z: 1}
  m_Children:
  - {fileID: 4187407591040909215}
  m_Father: {fileID: 0}
  m_RootOrder: 0
  m_LocalEulerAnglesHint: {x: 0, y: 0, z: 0}
--- !u!1001 &2135355946328827565
PrefabInstance:
  m_ObjectHideFlags: 0
  serializedVersion: 2
  m_Modification:
    m_TransformParent: {fileID: 7074722834440534117}
    m_Modifications:
    - target: {fileID: 2863981429959941074, guid: 4f42672477f836a4281ef4c3bdfe6d05,
        type: 3}
      propertyPath: m_Materials.Array.data[0]
      value: 
      objectReference: {fileID: 2100000, guid: 900d363ee3425754e9faa184840ff01c, type: 2}
    - target: {fileID: 2863981429959941074, guid: 4f42672477f836a4281ef4c3bdfe6d05,
        type: 3}
      propertyPath: m_Materials.Array.data[1]
      value: 
      objectReference: {fileID: 2100000, guid: 168a83c82a15d7942a5bccd1242864e9, type: 2}
    - target: {fileID: 2863981429961868562, guid: 4f42672477f836a4281ef4c3bdfe6d05,
        type: 3}
      propertyPath: m_Name
      value: Mesh
      objectReference: {fileID: 0}
    - target: {fileID: 2863981429962234162, guid: 4f42672477f836a4281ef4c3bdfe6d05,
        type: 3}
      propertyPath: m_RootOrder
      value: 0
      objectReference: {fileID: 0}
    - target: {fileID: 2863981429962234162, guid: 4f42672477f836a4281ef4c3bdfe6d05,
        type: 3}
      propertyPath: m_LocalPosition.x
      value: 0
      objectReference: {fileID: 0}
    - target: {fileID: 2863981429962234162, guid: 4f42672477f836a4281ef4c3bdfe6d05,
        type: 3}
      propertyPath: m_LocalPosition.y
      value: 0
      objectReference: {fileID: 0}
    - target: {fileID: 2863981429962234162, guid: 4f42672477f836a4281ef4c3bdfe6d05,
        type: 3}
      propertyPath: m_LocalPosition.z
      value: 0
      objectReference: {fileID: 0}
    - target: {fileID: 2863981429962234162, guid: 4f42672477f836a4281ef4c3bdfe6d05,
        type: 3}
      propertyPath: m_LocalRotation.w
      value: 1
      objectReference: {fileID: 0}
    - target: {fileID: 2863981429962234162, guid: 4f42672477f836a4281ef4c3bdfe6d05,
        type: 3}
      propertyPath: m_LocalRotation.x
      value: 0
      objectReference: {fileID: 0}
    - target: {fileID: 2863981429962234162, guid: 4f42672477f836a4281ef4c3bdfe6d05,
        type: 3}
      propertyPath: m_LocalRotation.y
      value: -0
      objectReference: {fileID: 0}
    - target: {fileID: 2863981429962234162, guid: 4f42672477f836a4281ef4c3bdfe6d05,
        type: 3}
      propertyPath: m_LocalRotation.z
      value: -0
      objectReference: {fileID: 0}
    - target: {fileID: 2863981429962234162, guid: 4f42672477f836a4281ef4c3bdfe6d05,
        type: 3}
      propertyPath: m_LocalEulerAnglesHint.x
      value: 0
      objectReference: {fileID: 0}
    - target: {fileID: 2863981429962234162, guid: 4f42672477f836a4281ef4c3bdfe6d05,
        type: 3}
      propertyPath: m_LocalEulerAnglesHint.y
      value: 0
      objectReference: {fileID: 0}
    - target: {fileID: 2863981429962234162, guid: 4f42672477f836a4281ef4c3bdfe6d05,
        type: 3}
      propertyPath: m_LocalEulerAnglesHint.z
      value: 0
      objectReference: {fileID: 0}
    m_RemovedComponents: []
  m_SourcePrefab: {fileID: 100100000, guid: 4f42672477f836a4281ef4c3bdfe6d05, type: 3}
--- !u!4 &4187407591040909215 stripped
Transform:
  m_CorrespondingSourceObject: {fileID: 2863981429962234162, guid: 4f42672477f836a4281ef4c3bdfe6d05,
    type: 3}
  m_PrefabInstance: {fileID: 2135355946328827565}
  m_PrefabAsset: {fileID: 0}
