%YAML 1.1
%TAG !u! tag:unity3d.com,2011:
--- !u!1 &8935401641348770091
GameObject:
  m_ObjectHideFlags: 0
  m_CorrespondingSourceObject: {fileID: 0}
  m_PrefabInstance: {fileID: 0}
  m_PrefabAsset: {fileID: 0}
  serializedVersion: 6
  m_Component:
  - component: {fileID: 1069339938658419798}
  m_Layer: 0
  m_Name: Wall_Corner
  m_TagString: Untagged
  m_Icon: {fileID: 0}
  m_NavMeshLayer: 0
  m_StaticEditorFlags: 4294967295
  m_IsActive: 1
--- !u!4 &1069339938658419798
Transform:
  m_ObjectHideFlags: 0
  m_CorrespondingSourceObject: {fileID: 0}
  m_PrefabInstance: {fileID: 0}
  m_PrefabAsset: {fileID: 0}
  m_GameObject: {fileID: 8935401641348770091}
  m_LocalRotation: {x: -0, y: -0, z: -0, w: 1}
  m_LocalPosition: {x: 0, y: 0, z: 0}
  m_LocalScale: {x: 1, y: 1, z: 1}
  m_Children:
  - {fileID: 3569761774694053539}
  - {fileID: 6802760204844486675}
  m_Father: {fileID: 0}
  m_RootOrder: 0
  m_LocalEulerAnglesHint: {x: 0, y: 0, z: 0}
--- !u!1001 &1378881260229317573
PrefabInstance:
  m_ObjectHideFlags: 0
  serializedVersion: 2
  m_Modification:
    m_TransformParent: {fileID: 1069339938658419798}
    m_Modifications:
    - target: {fileID: 2497406903890568550, guid: 7ba64c0944716c24f911914e2e6af7a4,
        type: 3}
      propertyPath: m_RootOrder
      value: 0
      objectReference: {fileID: 0}
    - target: {fileID: 2497406903890568550, guid: 7ba64c0944716c24f911914e2e6af7a4,
        type: 3}
      propertyPath: m_LocalPosition.x
      value: 0
      objectReference: {fileID: 0}
    - target: {fileID: 2497406903890568550, guid: 7ba64c0944716c24f911914e2e6af7a4,
        type: 3}
      propertyPath: m_LocalPosition.y
      value: 0
      objectReference: {fileID: 0}
    - target: {fileID: 2497406903890568550, guid: 7ba64c0944716c24f911914e2e6af7a4,
        type: 3}
      propertyPath: m_LocalPosition.z
      value: 0
      objectReference: {fileID: 0}
    - target: {fileID: 2497406903890568550, guid: 7ba64c0944716c24f911914e2e6af7a4,
        type: 3}
      propertyPath: m_LocalRotation.w
      value: 1
      objectReference: {fileID: 0}
    - target: {fileID: 2497406903890568550, guid: 7ba64c0944716c24f911914e2e6af7a4,
        type: 3}
      propertyPath: m_LocalRotation.x
      value: -0
      objectReference: {fileID: 0}
    - target: {fileID: 2497406903890568550, guid: 7ba64c0944716c24f911914e2e6af7a4,
        type: 3}
      propertyPath: m_LocalRotation.y
      value: -0
      objectReference: {fileID: 0}
    - target: {fileID: 2497406903890568550, guid: 7ba64c0944716c24f911914e2e6af7a4,
        type: 3}
      propertyPath: m_LocalRotation.z
      value: -0
      objectReference: {fileID: 0}
    - target: {fileID: 2497406903890568550, guid: 7ba64c0944716c24f911914e2e6af7a4,
        type: 3}
      propertyPath: m_LocalEulerAnglesHint.x
      value: 0
      objectReference: {fileID: 0}
    - target: {fileID: 2497406903890568550, guid: 7ba64c0944716c24f911914e2e6af7a4,
        type: 3}
      propertyPath: m_LocalEulerAnglesHint.y
      value: 0
      objectReference: {fileID: 0}
    - target: {fileID: 2497406903890568550, guid: 7ba64c0944716c24f911914e2e6af7a4,
        type: 3}
      propertyPath: m_LocalEulerAnglesHint.z
      value: 0
      objectReference: {fileID: 0}
    - target: {fileID: 4548416285556944926, guid: 7ba64c0944716c24f911914e2e6af7a4,
        type: 3}
      propertyPath: m_Name
      value: Wall_4m
      objectReference: {fileID: 0}
    - target: {fileID: 8834459052261777532, guid: 7ba64c0944716c24f911914e2e6af7a4,
        type: 3}
      propertyPath: m_Materials.Array.data[1]
      value: 
      objectReference: {fileID: 2100000, guid: 4cb37b113252eae4bb8a1f49ef9ef76c, type: 2}
    m_RemovedComponents: []
  m_SourcePrefab: {fileID: 100100000, guid: 7ba64c0944716c24f911914e2e6af7a4, type: 3}
--- !u!4 &3569761774694053539 stripped
Transform:
  m_CorrespondingSourceObject: {fileID: 2497406903890568550, guid: 7ba64c0944716c24f911914e2e6af7a4,
    type: 3}
  m_PrefabInstance: {fileID: 1378881260229317573}
  m_PrefabAsset: {fileID: 0}
--- !u!1001 &8989413580351354229
PrefabInstance:
  m_ObjectHideFlags: 0
  serializedVersion: 2
  m_Modification:
    m_TransformParent: {fileID: 1069339938658419798}
    m_Modifications:
    - target: {fileID: 2497406903890568550, guid: 7ba64c0944716c24f911914e2e6af7a4,
        type: 3}
      propertyPath: m_RootOrder
      value: 1
      objectReference: {fileID: 0}
    - target: {fileID: 2497406903890568550, guid: 7ba64c0944716c24f911914e2e6af7a4,
        type: 3}
      propertyPath: m_LocalPosition.x
      value: 3
      objectReference: {fileID: 0}
    - target: {fileID: 2497406903890568550, guid: 7ba64c0944716c24f911914e2e6af7a4,
        type: 3}
      propertyPath: m_LocalPosition.y
      value: 0
      objectReference: {fileID: 0}
    - target: {fileID: 2497406903890568550, guid: 7ba64c0944716c24f911914e2e6af7a4,
        type: 3}
      propertyPath: m_LocalPosition.z
      value: 3
      objectReference: {fileID: 0}
    - target: {fileID: 2497406903890568550, guid: 7ba64c0944716c24f911914e2e6af7a4,
        type: 3}
      propertyPath: m_LocalRotation.w
      value: 0.70710784
      objectReference: {fileID: 0}
    - target: {fileID: 2497406903890568550, guid: 7ba64c0944716c24f911914e2e6af7a4,
        type: 3}
      propertyPath: m_LocalRotation.x
      value: -0
      objectReference: {fileID: 0}
    - target: {fileID: 2497406903890568550, guid: 7ba64c0944716c24f911914e2e6af7a4,
        type: 3}
      propertyPath: m_LocalRotation.y
      value: -0.70710576
      objectReference: {fileID: 0}
    - target: {fileID: 2497406903890568550, guid: 7ba64c0944716c24f911914e2e6af7a4,
        type: 3}
      propertyPath: m_LocalRotation.z
      value: -0
      objectReference: {fileID: 0}
    - target: {fileID: 2497406903890568550, guid: 7ba64c0944716c24f911914e2e6af7a4,
        type: 3}
      propertyPath: m_LocalEulerAnglesHint.x
      value: 0
      objectReference: {fileID: 0}
    - target: {fileID: 2497406903890568550, guid: 7ba64c0944716c24f911914e2e6af7a4,
        type: 3}
      propertyPath: m_LocalEulerAnglesHint.y
      value: -90.00001
      objectReference: {fileID: 0}
    - target: {fileID: 2497406903890568550, guid: 7ba64c0944716c24f911914e2e6af7a4,
        type: 3}
      propertyPath: m_LocalEulerAnglesHint.z
      value: 0
      objectReference: {fileID: 0}
    - target: {fileID: 4548416285556944926, guid: 7ba64c0944716c24f911914e2e6af7a4,
        type: 3}
      propertyPath: m_Name
      value: Wall_4m
      objectReference: {fileID: 0}
    - target: {fileID: 8834459052261777532, guid: 7ba64c0944716c24f911914e2e6af7a4,
        type: 3}
      propertyPath: m_Materials.Array.data[1]
      value: 
      objectReference: {fileID: 2100000, guid: 4cb37b113252eae4bb8a1f49ef9ef76c, type: 2}
    m_RemovedComponents: []
  m_SourcePrefab: {fileID: 100100000, guid: 7ba64c0944716c24f911914e2e6af7a4, type: 3}
--- !u!4 &6802760204844486675 stripped
Transform:
  m_CorrespondingSourceObject: {fileID: 2497406903890568550, guid: 7ba64c0944716c24f911914e2e6af7a4,
    type: 3}
  m_PrefabInstance: {fileID: 8989413580351354229}
  m_PrefabAsset: {fileID: 0}
