%YAML 1.1
%TAG !u! tag:unity3d.com,2011:
--- !u!1 &7883432885522875511
GameObject:
  m_ObjectHideFlags: 0
  m_CorrespondingSourceObject: {fileID: 0}
  m_PrefabInstance: {fileID: 0}
  m_PrefabAsset: {fileID: 0}
  serializedVersion: 6
  m_Component:
  - component: {fileID: 8116452804761813972}
  m_Layer: 0
  m_Name: Basic_Floor 1 1 1
  m_TagString: Untagged
  m_Icon: {fileID: 0}
  m_NavMeshLayer: 0
  m_StaticEditorFlags: 4294967295
  m_IsActive: 1
--- !u!4 &8116452804761813972
Transform:
  m_ObjectHideFlags: 0
  m_CorrespondingSourceObject: {fileID: 0}
  m_PrefabInstance: {fileID: 0}
  m_PrefabAsset: {fileID: 0}
  m_GameObject: {fileID: 7883432885522875511}
  m_LocalRotation: {x: 0, y: 0, z: 0, w: 1}
  m_LocalPosition: {x: 0, y: 0, z: 0}
  m_LocalScale: {x: 1, y: 1, z: 1}
  m_Children:
  - {fileID: 623480113464461866}
  m_Father: {fileID: 0}
  m_RootOrder: 0
  m_LocalEulerAnglesHint: {x: 0, y: 0, z: 0}
--- !u!1001 &1149221017868021730
PrefabInstance:
  m_ObjectHideFlags: 0
  serializedVersion: 2
  m_Modification:
    m_TransformParent: {fileID: 8116452804761813972}
    m_Modifications:
    - target: {fileID: 528559090865760040, guid: 2a86e4ba493cd034cbc2c5713da1a643,
        type: 3}
      propertyPath: m_Materials.Array.data[0]
      value: 
      objectReference: {fileID: 2100000, guid: 68024c60e1d54af449d0ead26451e193, type: 2}
    - target: {fileID: 528559090865760040, guid: 2a86e4ba493cd034cbc2c5713da1a643,
        type: 3}
      propertyPath: m_Materials.Array.data[1]
      value: 
      objectReference: {fileID: 2100000, guid: 07acd62d60caa674db1116079cf0038d, type: 2}
    - target: {fileID: 528559090867763688, guid: 2a86e4ba493cd034cbc2c5713da1a643,
        type: 3}
      propertyPath: m_Name
      value: Mesh
      objectReference: {fileID: 0}
    - target: {fileID: 528559090867763688, guid: 2a86e4ba493cd034cbc2c5713da1a643,
        type: 3}
      propertyPath: m_StaticEditorFlags
      value: 4294967295
      objectReference: {fileID: 0}
    - target: {fileID: 528559090868053448, guid: 2a86e4ba493cd034cbc2c5713da1a643,
        type: 3}
      propertyPath: m_RootOrder
      value: 0
      objectReference: {fileID: 0}
    - target: {fileID: 528559090868053448, guid: 2a86e4ba493cd034cbc2c5713da1a643,
        type: 3}
      propertyPath: m_LocalPosition.x
      value: 3
      objectReference: {fileID: 0}
    - target: {fileID: 528559090868053448, guid: 2a86e4ba493cd034cbc2c5713da1a643,
        type: 3}
      propertyPath: m_LocalPosition.y
      value: 0
      objectReference: {fileID: 0}
    - target: {fileID: 528559090868053448, guid: 2a86e4ba493cd034cbc2c5713da1a643,
        type: 3}
      propertyPath: m_LocalPosition.z
      value: 0
      objectReference: {fileID: 0}
    - target: {fileID: 528559090868053448, guid: 2a86e4ba493cd034cbc2c5713da1a643,
        type: 3}
      propertyPath: m_LocalRotation.w
      value: 0.7071068
      objectReference: {fileID: 0}
    - target: {fileID: 528559090868053448, guid: 2a86e4ba493cd034cbc2c5713da1a643,
        type: 3}
      propertyPath: m_LocalRotation.x
      value: 0
      objectReference: {fileID: 0}
    - target: {fileID: 528559090868053448, guid: 2a86e4ba493cd034cbc2c5713da1a643,
        type: 3}
      propertyPath: m_LocalRotation.y
      value: -0.7071068
      objectReference: {fileID: 0}
    - target: {fileID: 528559090868053448, guid: 2a86e4ba493cd034cbc2c5713da1a643,
        type: 3}
      propertyPath: m_LocalRotation.z
      value: 0
      objectReference: {fileID: 0}
    - target: {fileID: 528559090868053448, guid: 2a86e4ba493cd034cbc2c5713da1a643,
        type: 3}
      propertyPath: m_LocalEulerAnglesHint.x
      value: 0
      objectReference: {fileID: 0}
    - target: {fileID: 528559090868053448, guid: 2a86e4ba493cd034cbc2c5713da1a643,
        type: 3}
      propertyPath: m_LocalEulerAnglesHint.y
      value: -90
      objectReference: {fileID: 0}
    - target: {fileID: 528559090868053448, guid: 2a86e4ba493cd034cbc2c5713da1a643,
        type: 3}
      propertyPath: m_LocalEulerAnglesHint.z
      value: 0
      objectReference: {fileID: 0}
    m_RemovedComponents: []
  m_SourcePrefab: {fileID: 100100000, guid: 2a86e4ba493cd034cbc2c5713da1a643, type: 3}
--- !u!4 &623480113464461866 stripped
Transform:
  m_CorrespondingSourceObject: {fileID: 528559090868053448, guid: 2a86e4ba493cd034cbc2c5713da1a643,
    type: 3}
  m_PrefabInstance: {fileID: 1149221017868021730}
  m_PrefabAsset: {fileID: 0}
